mp02.qmd – STA 9750 Submission Material
…
# --- Step 5: Create the sentence ---
sentence <- paste0(
  "The CBSA that permitted the most new housing units was ",
  top_cbsa$CBSA_name,
  ", with a total of ",
  top_cbsa$total_new_units,
  " units from 2010 to 2019."
)

# --- Output ---
combined_table     # full table with totals, years, and names

# A tibble: 399 × 4
    CBSA total_new_units years_reported CBSA_name                            
   <dbl>           <dbl>          <int> <chr>                                
 1 26420          482075             10 Chicago-Naperville-Elgin, IL-IN-WI   
 2 19100          460826             10 <NA>                                 
 3 35620          446020             10 <NA>                                 
 4 12060          254377             10 <NA>                                 
 5 47900          232483             10 <NA>                                 
 6 38060          219939             10 <NA>                                 
 7 42660          213022             10 <NA>                                 
 8 12420          212392             10 <NA>                                 
 9 31080          184260              6 New York-Newark-Jersey City, NY-NJ-PA
10 36740          171588             10 <NA>                                 
# ℹ 389 more rows
…
