mp03- The Green Canopy of NYC – STA 9750 Submission Material
…
Code

trees_per_district <- trees_joined %>%
  st_drop_geometry() %>%     # remove point geometries
  group_by(CounDist) %>%    # use exact column name
  summarise(n_trees = n())

trees_per_district

# A tibble: 52 × 2
   CounDist n_trees
      <int>   <int>
 1        1   12266
 2        2   11562
 3        3   11999
 4        4   11099
 5        5    8325
 6        6   12140
 7        7   15639
 8        8   18180
 9        9   13455
10       10   15300
# ℹ 42 more rows
…
